…
### Better Selectors

As shown on the select_dtypes fiasco with groupby pandas needs to step up its selecting game.  

dplyr supports all manner of straightforward ways to select data like regex expressions.

<div class="layout-chunk" data-layout="l-body">
<div class="sourceCode"><pre class="sourceCode r"><code class="sourceCode r"><span class='va'>penguins</span> |&gt;
  <span class='fu'><a href='https://dplyr.tidyverse.org/reference/group_by.html'>group_by</a></span><span class='op'>(</span><span class='va'>sex</span><span class='op'>)</span> |&gt; 
  <span class='fu'><a href='https://dplyr.tidyverse.org/reference/select.html'>select</a></span><span class='op'>(</span><span class='fu'><a href='https://tidyselect.r-lib.org/reference/starts_with.html'>matches</a></span><span class='op'>(</span><span class='st'>'mm$'</span><span class='op'>)</span><span class='op'>)</span>
</code></pre></div>

```
# A tibble: 344 x 4
# Groups:   sex [3]
   sex    bill_length_mm bill_depth_mm flipper_length_mm
   <fct>           <dbl>         <dbl>             <int>
 1 male             39.1          18.7               181
 2 female           39.5          17.4               186
 3 female           40.3          18                 195
 4 <NA>             NA            NA                  NA
 5 female           36.7          19.3               193
 6 male             39.3          20.6               190
 7 female           38.9          17.8               181
 8 male             39.2          19.6               195
 9 <NA>             34.1          18.1               193
10 <NA>             42            20.2               190
# ... with 334 more rows
```

</div>


Or data type inference that actually works post grouped operations.

<div class="layout-chunk" data-layout="l-body">
<div class="sourceCode"><pre class="sourceCode r"><code class="sourceCode r"><span class='va'>penguins</span> |&gt;
  <span class='fu'><a href='https://dplyr.tidyverse.org/reference/group_by.html'>group_by</a></span><span class='op'>(</span><span class='va'>sex</span><span class='op'>)</span> |&gt; 
  <span class='fu'><a href='https://dplyr.tidyverse.org/reference/select.html'>select</a></span><span class='op'>(</span><span class='fu'>where</span><span class='op'>(</span><span class='va'>is.numeric</span><span class='op'>)</span><span class='op'>)</span>
</code></pre></div>

```
# A tibble: 344 x 6
# Groups:   sex [3]
   sex    bill_length_mm bill_depth_mm flipper_length_mm body_mass_g
   <fct>           <dbl>         <dbl>             <int>       <int>
 1 male             39.1          18.7               181        3750
 2 female           39.5          17.4               186        3800
 3 female           40.3          18                 195        3250
 4 <NA>             NA            NA                  NA          NA
 5 female           36.7          19.3               193        3450
 6 male             39.3          20.6               190        3650
 7 female           38.9          17.8               181        3625
 8 male             39.2          19.6               195        4675
 9 <NA>             34.1          18.1               193        3475
10 <NA>             42            20.2               190        4250
# ... with 334 more rows, and 1 more variable: year <int>
```
…
It can even go as far as to accept custom functions that return Boolean values, although it may require some protection from function errors.


<div class="layout-chunk" data-layout="l-body">
<div class="sourceCode"><pre class="sourceCode r"><code class="sourceCode r"><span class='va'>safe_sum</span> <span class='op'>&lt;-</span> \<span class='op'>(</span><span class='va'>original_col</span><span class='op'>)</span> <span class='fu'><a href='https://purrr.tidyverse.org/reference/safely.html'>safely</a></span><span class='op'>(</span>\<span class='op'>(</span><span class='va'>x</span><span class='op'>)</span> <span class='fu'><a href='https://rdrr.io/r/base/sum.html'>sum</a></span><span class='op'>(</span><span class='va'>x</span>,na.rm <span class='op'>=</span> <span class='cn'>TRUE</span><span class='op'>)</span><span class='op'>)</span><span class='op'>(</span><span class='va'>original_col</span><span class='op'>)</span><span class='op'>$</span><span class='va'>result</span>

<span class='va'>penguins</span> |&gt;
  <span class='fu'><a href='https://dplyr.tidyverse.org/reference/group_by.html'>group_by</a></span><span class='op'>(</span><span class='va'>sex</span><span class='op'>)</span> |&gt; 
  <span class='fu'><a href='https://dplyr.tidyverse.org/reference/select.html'>select</a></span><span class='op'>(</span><span class='fu'>where</span><span class='op'>(</span>\<span class='op'>(</span><span class='va'>x</span><span class='op'>)</span> <span class='fu'><a href='https://rdrr.io/r/base/Logic.html'>isTRUE</a></span><span class='op'>(</span><span class='fu'>safe_sum</span><span class='op'>(</span><span class='va'>x</span><span class='op'>)</span> <span class='op'>&gt;</span> <span class='fl'>100</span><span class='op'>)</span><span class='op'>)</span><span class='op'>)</span> |&gt; 
  <span class='fu'><a href='https://dplyr.tidyverse.org/reference/select.html'>select</a></span><span class='op'>(</span><span class='op'>!</span><span class='va'>year</span><span class='op'>)</span>
</code></pre></div>

```
# A tibble: 344 x 5
# Groups:   sex [3]
   sex    bill_length_mm bill_depth_mm flipper_length_mm body_mass_g
   <fct>           <dbl>         <dbl>             <int>       <int>
 1 male             39.1          18.7               181        3750
 2 female           39.5          17.4               186        3800
 3 female           40.3          18                 195        3250
 4 <NA>             NA            NA                  NA          NA
 5 female           36.7          19.3               193        3450
 6 male             39.3          20.6               190        3650
 7 female           38.9          17.8               181        3625
 8 male             39.2          19.6               195        4675
 9 <NA>             34.1          18.1               193        3475
10 <NA>             42            20.2               190        4250
# ... with 334 more rows
```
…
